-------------------------------------------------------------------------------
Test set: com.javacodegeeks.example.AppTest
-------------------------------------------------------------------------------
Tests run: 0, Failures: 0, Errors: 0, Skipped: 0, Time elapsed: 0.003 sec
